Project 1 - NSM724
…
project1%>%summarise(max_GDP=max(GDP_pct),min_GDP=min(GDP_pct),max_liters=max(total_litres_of_pure_alcohol),min_liters=min(total_litres_of_pure_alcohol),max_servings=max(servings),min_servings=min(servings))

## # A tibble: 1 x 6
##   max_GDP min_GDP max_liters min_liters max_servings min_servings
##     <dbl>   <dbl>      <dbl>      <dbl>        <int>        <int>
## 1    19.3    1.43       14.4          0          438            0

I’ve calculated the mean percentage of GDP spent on healthcare in each region. North America appears to be spending the most by far. I’ve also found the maximum and minimum of each numeric variable in order to get an idea of the range of this data.

Next, I’m going to see the mean and standard deviation of servings and liters of alcohol consumed in each region. For servings I’m also grouping by type of alcohol. I’m arranging from highest to lowest consumption so I can get an idea of how much alcohol each region consumes.

project1%>%group_by(region,type)%>%summarise(mean_servings=mean(servings),sd_servings=sd(servings))%>%arrange(desc(mean_servings))

## # A tibble: 21 x 4
## # Groups:   region [7]
##    region                    type   mean_servings sd_servings
##    <chr>                     <chr>          <dbl>       <dbl>
##  1 North America             beer           240          NA  
##  2 Europe & Central Asia     beer           188.        106. 
##  3 Latin America & Caribbean spirit         145.        102. 
##  4 Latin America & Caribbean beer           144.         71.7
##  5 Europe & Central Asia     wine           132.        103. 
##  6 Europe & Central Asia     spirit         131.         82.5
##  7 North America             spirit         122          NA  
##  8 North America             wine           100          NA  
##  9 East Asia & Pacific       beer            73.6        78.1
## 10 Sub-Saharan Africa        beer            70.4        88.4
## # … with 11 more rows
…
